%YAML 1.1
%TAG !u! tag:unity3d.com,2011:
--- !u!1001 &1193673168032688922
PrefabInstance:
  m_ObjectHideFlags: 0
  serializedVersion: 2
  m_Modification:
    m_TransformParent: {fileID: 0}
    m_Modifications:
    - target: {fileID: 8137130471479133182, guid: 3f4349287dac157449782c6f92d74dee,
        type: 3}
      propertyPath: m_Name
      value: Player3Bunny
      objectReference: {fileID: 0}
    - target: {fileID: 8135307795254873540, guid: 3f4349287dac157449782c6f92d74dee,
        type: 3}
      propertyPath: m_LocalPosition.x
      value: -4.0300007
      objectReference: {fileID: 0}
    - target: {fileID: 8135307795254873540, guid: 3f4349287dac157449782c6f92d74dee,
        type: 3}
      propertyPath: m_LocalPosition.y
      value: 1.02
      objectReference: {fileID: 0}
    - target: {fileID: 8135307795254873540, guid: 3f4349287dac157449782c6f92d74dee,
        type: 3}
      propertyPath: m_LocalPosition.z
      value: -0.33
      objectReference: {fileID: 0}
    - target: {fileID: 8135307795254873540, guid: 3f4349287dac157449782c6f92d74dee,
        type: 3}
      propertyPath: m_LocalRotation.x
      value: -0
      objectReference: {fileID: 0}
    - target: {fileID: 8135307795254873540, guid: 3f4349287dac157449782c6f92d74dee,
        type: 3}
      propertyPath: m_LocalRotation.y
      value: -0
      objectReference: {fileID: 0}
    - target: {fileID: 8135307795254873540, guid: 3f4349287dac157449782c6f92d74dee,
        type: 3}
      propertyPath: m_LocalRotation.z
      value: -0
      objectReference: {fileID: 0}
    - target: {fileID: 8135307795254873540, guid: 3f4349287dac157449782c6f92d74dee,
        type: 3}
      propertyPath: m_LocalRotation.w
      value: 1
      objectReference: {fileID: 0}
    - target: {fileID: 8135307795254873540, guid: 3f4349287dac157449782c6f92d74dee,
        type: 3}
      propertyPath: m_RootOrder
      value: 0
      objectReference: {fileID: 0}
    - target: {fileID: 8135307795254873540, guid: 3f4349287dac157449782c6f92d74dee,
        type: 3}
      propertyPath: m_LocalEulerAnglesHint.x
      value: 0
      objectReference: {fileID: 0}
    - target: {fileID: 8135307795254873540, guid: 3f4349287dac157449782c6f92d74dee,
        type: 3}
      propertyPath: m_LocalEulerAnglesHint.y
      value: 0
      objectReference: {fileID: 0}
    - target: {fileID: 8135307795254873540, guid: 3f4349287dac157449782c6f92d74dee,
        type: 3}
      propertyPath: m_LocalEulerAnglesHint.z
      value: 0
      objectReference: {fileID: 0}
    - target: {fileID: 8178371276763665390, guid: 3f4349287dac157449782c6f92d74dee,
        type: 3}
      propertyPath: gameManager
      value: 
      objectReference: {fileID: 0}
    - target: {fileID: 8178371276763665390, guid: 3f4349287dac157449782c6f92d74dee,
        type: 3}
      propertyPath: gPoundStringALT
      value: GroundPoundP3ALT
      objectReference: {fileID: 0}
    - target: {fileID: 8178371276763665390, guid: 3f4349287dac157449782c6f92d74dee,
        type: 3}
      propertyPath: dashStringLeftALT
      value: DashLeftP3ALT
      objectReference: {fileID: 0}
    - target: {fileID: 8178371276763665390, guid: 3f4349287dac157449782c6f92d74dee,
        type: 3}
      propertyPath: dashStringRightALT
      value: DashRightP3ALT
      objectReference: {fileID: 0}
    - target: {fileID: 8178371276763665390, guid: 3f4349287dac157449782c6f92d74dee,
        type: 3}
      propertyPath: jumpStringALT
      value: JumpP3ALT
      objectReference: {fileID: 0}
    - target: {fileID: 8178371276763665390, guid: 3f4349287dac157449782c6f92d74dee,
        type: 3}
      propertyPath: horizontalStringALT
      value: HorizontalP3ALT
      objectReference: {fileID: 0}
    - target: {fileID: 8178371276763665390, guid: 3f4349287dac157449782c6f92d74dee,
        type: 3}
      propertyPath: gPoundString
      value: GroundPoundP3
      objectReference: {fileID: 0}
    - target: {fileID: 8178371276763665390, guid: 3f4349287dac157449782c6f92d74dee,
        type: 3}
      propertyPath: dashStringLeft
      value: DashLeftP3
      objectReference: {fileID: 0}
    - target: {fileID: 8178371276763665390, guid: 3f4349287dac157449782c6f92d74dee,
        type: 3}
      propertyPath: dashStringRight
      value: DashRightP3
      objectReference: {fileID: 0}
    - target: {fileID: 8178371276763665390, guid: 3f4349287dac157449782c6f92d74dee,
        type: 3}
      propertyPath: jumpString
      value: JumpP3
      objectReference: {fileID: 0}
    - target: {fileID: 8178371276763665390, guid: 3f4349287dac157449782c6f92d74dee,
        type: 3}
      propertyPath: horizontalString
      value: HorizontalP3
      objectReference: {fileID: 0}
    m_RemovedComponents: []
  m_SourcePrefab: {fileID: 100100000, guid: 3f4349287dac157449782c6f92d74dee, type: 3}
