%YAML 1.1
%TAG !u! tag:unity3d.com,2011:
--- !u!1001 &7529599577666493764
PrefabInstance:
  m_ObjectHideFlags: 0
  serializedVersion: 2
  m_Modification:
    m_TransformParent: {fileID: 0}
    m_Modifications:
    - target: {fileID: 6510833842924144922, guid: 1ad73957a84f51345970506fb73dc966,
        type: 3}
      propertyPath: m_Name
      value: Player4WhiteBunny
      objectReference: {fileID: 0}
    - target: {fileID: 6508175047162758944, guid: 1ad73957a84f51345970506fb73dc966,
        type: 3}
      propertyPath: m_LocalPosition.x
      value: 6.779999
      objectReference: {fileID: 0}
    - target: {fileID: 6508175047162758944, guid: 1ad73957a84f51345970506fb73dc966,
        type: 3}
      propertyPath: m_LocalPosition.y
      value: 1.02
      objectReference: {fileID: 0}
    - target: {fileID: 6508175047162758944, guid: 1ad73957a84f51345970506fb73dc966,
        type: 3}
      propertyPath: m_LocalPosition.z
      value: -0.33
      objectReference: {fileID: 0}
    - target: {fileID: 6508175047162758944, guid: 1ad73957a84f51345970506fb73dc966,
        type: 3}
      propertyPath: m_LocalRotation.x
      value: -0
      objectReference: {fileID: 0}
    - target: {fileID: 6508175047162758944, guid: 1ad73957a84f51345970506fb73dc966,
        type: 3}
      propertyPath: m_LocalRotation.y
      value: -0
      objectReference: {fileID: 0}
    - target: {fileID: 6508175047162758944, guid: 1ad73957a84f51345970506fb73dc966,
        type: 3}
      propertyPath: m_LocalRotation.z
      value: -0
      objectReference: {fileID: 0}
    - target: {fileID: 6508175047162758944, guid: 1ad73957a84f51345970506fb73dc966,
        type: 3}
      propertyPath: m_LocalRotation.w
      value: 1
      objectReference: {fileID: 0}
    - target: {fileID: 6508175047162758944, guid: 1ad73957a84f51345970506fb73dc966,
        type: 3}
      propertyPath: m_RootOrder
      value: 0
      objectReference: {fileID: 0}
    - target: {fileID: 6508175047162758944, guid: 1ad73957a84f51345970506fb73dc966,
        type: 3}
      propertyPath: m_LocalEulerAnglesHint.x
      value: 0
      objectReference: {fileID: 0}
    - target: {fileID: 6508175047162758944, guid: 1ad73957a84f51345970506fb73dc966,
        type: 3}
      propertyPath: m_LocalEulerAnglesHint.y
      value: 0
      objectReference: {fileID: 0}
    - target: {fileID: 6508175047162758944, guid: 1ad73957a84f51345970506fb73dc966,
        type: 3}
      propertyPath: m_LocalEulerAnglesHint.z
      value: 0
      objectReference: {fileID: 0}
    - target: {fileID: 6613725955247642890, guid: 1ad73957a84f51345970506fb73dc966,
        type: 3}
      propertyPath: gameManager
      value: 
      objectReference: {fileID: 0}
    - target: {fileID: 6613725955247642890, guid: 1ad73957a84f51345970506fb73dc966,
        type: 3}
      propertyPath: horizontalString
      value: HorizontalP4
      objectReference: {fileID: 0}
    - target: {fileID: 6613725955247642890, guid: 1ad73957a84f51345970506fb73dc966,
        type: 3}
      propertyPath: jumpString
      value: JumpP4
      objectReference: {fileID: 0}
    - target: {fileID: 6613725955247642890, guid: 1ad73957a84f51345970506fb73dc966,
        type: 3}
      propertyPath: dashStringRight
      value: DashRightP4
      objectReference: {fileID: 0}
    - target: {fileID: 6613725955247642890, guid: 1ad73957a84f51345970506fb73dc966,
        type: 3}
      propertyPath: dashStringLeft
      value: DashLeftP4
      objectReference: {fileID: 0}
    - target: {fileID: 6613725955247642890, guid: 1ad73957a84f51345970506fb73dc966,
        type: 3}
      propertyPath: gPoundString
      value: GroundPoundP4
      objectReference: {fileID: 0}
    - target: {fileID: 6613725955247642890, guid: 1ad73957a84f51345970506fb73dc966,
        type: 3}
      propertyPath: horizontalStringALT
      value: HorizontalP4ALT
      objectReference: {fileID: 0}
    - target: {fileID: 6613725955247642890, guid: 1ad73957a84f51345970506fb73dc966,
        type: 3}
      propertyPath: jumpStringALT
      value: JumpP4ALT
      objectReference: {fileID: 0}
    - target: {fileID: 6613725955247642890, guid: 1ad73957a84f51345970506fb73dc966,
        type: 3}
      propertyPath: dashStringRightALT
      value: DashRightP4ALT
      objectReference: {fileID: 0}
    - target: {fileID: 6613725955247642890, guid: 1ad73957a84f51345970506fb73dc966,
        type: 3}
      propertyPath: dashStringLeftALT
      value: DashLeftP4ALT
      objectReference: {fileID: 0}
    - target: {fileID: 6613725955247642890, guid: 1ad73957a84f51345970506fb73dc966,
        type: 3}
      propertyPath: gPoundStringALT
      value: GroundPoundP4ALT
      objectReference: {fileID: 0}
    m_RemovedComponents: []
  m_SourcePrefab: {fileID: 100100000, guid: 1ad73957a84f51345970506fb73dc966, type: 3}
