%YAML 1.1
%TAG !u! tag:unity3d.com,2011:
--- !u!1001 &6901035098586278852
PrefabInstance:
  m_ObjectHideFlags: 0
  serializedVersion: 2
  m_Modification:
    m_TransformParent: {fileID: 0}
    m_Modifications:
    - target: {fileID: 5003578663490002048, guid: 9b2642384ba869f409e8006b65084565,
        type: 3}
      propertyPath: m_Name
      value: Player1Orange
      objectReference: {fileID: 0}
    - target: {fileID: 5006531723537470138, guid: 9b2642384ba869f409e8006b65084565,
        type: 3}
      propertyPath: m_LocalPosition.x
      value: -1.0799999
      objectReference: {fileID: 0}
    - target: {fileID: 5006531723537470138, guid: 9b2642384ba869f409e8006b65084565,
        type: 3}
      propertyPath: m_LocalPosition.y
      value: 1.19
      objectReference: {fileID: 0}
    - target: {fileID: 5006531723537470138, guid: 9b2642384ba869f409e8006b65084565,
        type: 3}
      propertyPath: m_LocalPosition.z
      value: -0.33
      objectReference: {fileID: 0}
    - target: {fileID: 5006531723537470138, guid: 9b2642384ba869f409e8006b65084565,
        type: 3}
      propertyPath: m_LocalRotation.x
      value: -0
      objectReference: {fileID: 0}
    - target: {fileID: 5006531723537470138, guid: 9b2642384ba869f409e8006b65084565,
        type: 3}
      propertyPath: m_LocalRotation.y
      value: -0
      objectReference: {fileID: 0}
    - target: {fileID: 5006531723537470138, guid: 9b2642384ba869f409e8006b65084565,
        type: 3}
      propertyPath: m_LocalRotation.z
      value: -0
      objectReference: {fileID: 0}
    - target: {fileID: 5006531723537470138, guid: 9b2642384ba869f409e8006b65084565,
        type: 3}
      propertyPath: m_LocalRotation.w
      value: 1
      objectReference: {fileID: 0}
    - target: {fileID: 5006531723537470138, guid: 9b2642384ba869f409e8006b65084565,
        type: 3}
      propertyPath: m_RootOrder
      value: 0
      objectReference: {fileID: 0}
    - target: {fileID: 5006531723537470138, guid: 9b2642384ba869f409e8006b65084565,
        type: 3}
      propertyPath: m_LocalEulerAnglesHint.x
      value: 0
      objectReference: {fileID: 0}
    - target: {fileID: 5006531723537470138, guid: 9b2642384ba869f409e8006b65084565,
        type: 3}
      propertyPath: m_LocalEulerAnglesHint.y
      value: 0
      objectReference: {fileID: 0}
    - target: {fileID: 5006531723537470138, guid: 9b2642384ba869f409e8006b65084565,
        type: 3}
      propertyPath: m_LocalEulerAnglesHint.z
      value: 0
      objectReference: {fileID: 0}
    - target: {fileID: 4964026845412412560, guid: 9b2642384ba869f409e8006b65084565,
        type: 3}
      propertyPath: gameManager
      value: 
      objectReference: {fileID: 0}
    - target: {fileID: 4964026845412412560, guid: 9b2642384ba869f409e8006b65084565,
        type: 3}
      propertyPath: horizontalString
      value: HorizontalP1
      objectReference: {fileID: 0}
    - target: {fileID: 4964026845412412560, guid: 9b2642384ba869f409e8006b65084565,
        type: 3}
      propertyPath: jumpString
      value: JumpP1
      objectReference: {fileID: 0}
    - target: {fileID: 4964026845412412560, guid: 9b2642384ba869f409e8006b65084565,
        type: 3}
      propertyPath: dashStringRight
      value: DashRightP1
      objectReference: {fileID: 0}
    - target: {fileID: 4964026845412412560, guid: 9b2642384ba869f409e8006b65084565,
        type: 3}
      propertyPath: dashStringLeft
      value: DashLeftP1
      objectReference: {fileID: 0}
    - target: {fileID: 4964026845412412560, guid: 9b2642384ba869f409e8006b65084565,
        type: 3}
      propertyPath: gPoundString
      value: GroundPoundP1
      objectReference: {fileID: 0}
    - target: {fileID: 4964026845412412560, guid: 9b2642384ba869f409e8006b65084565,
        type: 3}
      propertyPath: horizontalStringALT
      value: HorizontalP1ALT
      objectReference: {fileID: 0}
    - target: {fileID: 4964026845412412560, guid: 9b2642384ba869f409e8006b65084565,
        type: 3}
      propertyPath: jumpStringALT
      value: JumpP1ALT
      objectReference: {fileID: 0}
    - target: {fileID: 4964026845412412560, guid: 9b2642384ba869f409e8006b65084565,
        type: 3}
      propertyPath: dashStringRightALT
      value: DashRightP1ALT
      objectReference: {fileID: 0}
    - target: {fileID: 4964026845412412560, guid: 9b2642384ba869f409e8006b65084565,
        type: 3}
      propertyPath: dashStringLeftALT
      value: DashLeftP1ALT
      objectReference: {fileID: 0}
    - target: {fileID: 4964026845412412560, guid: 9b2642384ba869f409e8006b65084565,
        type: 3}
      propertyPath: gPoundStringALT
      value: GroundPoundP1ALT
      objectReference: {fileID: 0}
    m_RemovedComponents: []
  m_SourcePrefab: {fileID: 100100000, guid: 9b2642384ba869f409e8006b65084565, type: 3}
