%YAML 1.1
%TAG !u! tag:unity3d.com,2011:
--- !u!1001 &8387782108830516866
PrefabInstance:
  m_ObjectHideFlags: 0
  serializedVersion: 2
  m_Modification:
    m_TransformParent: {fileID: 0}
    m_Modifications:
    - target: {fileID: 8305879662142874082, guid: 60bff7ab553d12d4a99ff19c1a0cb1ad,
        type: 3}
      propertyPath: m_Name
      value: Player1LightOrange
      objectReference: {fileID: 0}
    - target: {fileID: 8308833246172262360, guid: 60bff7ab553d12d4a99ff19c1a0cb1ad,
        type: 3}
      propertyPath: m_LocalPosition.x
      value: 3.9400005
      objectReference: {fileID: 0}
    - target: {fileID: 8308833246172262360, guid: 60bff7ab553d12d4a99ff19c1a0cb1ad,
        type: 3}
      propertyPath: m_LocalPosition.y
      value: 1.05
      objectReference: {fileID: 0}
    - target: {fileID: 8308833246172262360, guid: 60bff7ab553d12d4a99ff19c1a0cb1ad,
        type: 3}
      propertyPath: m_LocalPosition.z
      value: -0.33
      objectReference: {fileID: 0}
    - target: {fileID: 8308833246172262360, guid: 60bff7ab553d12d4a99ff19c1a0cb1ad,
        type: 3}
      propertyPath: m_LocalRotation.x
      value: -0
      objectReference: {fileID: 0}
    - target: {fileID: 8308833246172262360, guid: 60bff7ab553d12d4a99ff19c1a0cb1ad,
        type: 3}
      propertyPath: m_LocalRotation.y
      value: -0
      objectReference: {fileID: 0}
    - target: {fileID: 8308833246172262360, guid: 60bff7ab553d12d4a99ff19c1a0cb1ad,
        type: 3}
      propertyPath: m_LocalRotation.z
      value: -0
      objectReference: {fileID: 0}
    - target: {fileID: 8308833246172262360, guid: 60bff7ab553d12d4a99ff19c1a0cb1ad,
        type: 3}
      propertyPath: m_LocalRotation.w
      value: 1
      objectReference: {fileID: 0}
    - target: {fileID: 8308833246172262360, guid: 60bff7ab553d12d4a99ff19c1a0cb1ad,
        type: 3}
      propertyPath: m_RootOrder
      value: 0
      objectReference: {fileID: 0}
    - target: {fileID: 8308833246172262360, guid: 60bff7ab553d12d4a99ff19c1a0cb1ad,
        type: 3}
      propertyPath: m_LocalEulerAnglesHint.x
      value: 0
      objectReference: {fileID: 0}
    - target: {fileID: 8308833246172262360, guid: 60bff7ab553d12d4a99ff19c1a0cb1ad,
        type: 3}
      propertyPath: m_LocalEulerAnglesHint.y
      value: 0
      objectReference: {fileID: 0}
    - target: {fileID: 8308833246172262360, guid: 60bff7ab553d12d4a99ff19c1a0cb1ad,
        type: 3}
      propertyPath: m_LocalEulerAnglesHint.z
      value: 0
      objectReference: {fileID: 0}
    - target: {fileID: 8275335584552989170, guid: 60bff7ab553d12d4a99ff19c1a0cb1ad,
        type: 3}
      propertyPath: gameManager
      value: 
      objectReference: {fileID: 0}
    - target: {fileID: 8275335584552989170, guid: 60bff7ab553d12d4a99ff19c1a0cb1ad,
        type: 3}
      propertyPath: horizontalString
      value: HorizontalP1
      objectReference: {fileID: 0}
    - target: {fileID: 8275335584552989170, guid: 60bff7ab553d12d4a99ff19c1a0cb1ad,
        type: 3}
      propertyPath: jumpString
      value: JumpP1
      objectReference: {fileID: 0}
    - target: {fileID: 8275335584552989170, guid: 60bff7ab553d12d4a99ff19c1a0cb1ad,
        type: 3}
      propertyPath: dashStringRight
      value: DashRightP1
      objectReference: {fileID: 0}
    - target: {fileID: 8275335584552989170, guid: 60bff7ab553d12d4a99ff19c1a0cb1ad,
        type: 3}
      propertyPath: dashStringLeft
      value: DashLeftP1
      objectReference: {fileID: 0}
    - target: {fileID: 8275335584552989170, guid: 60bff7ab553d12d4a99ff19c1a0cb1ad,
        type: 3}
      propertyPath: gPoundString
      value: GroundPoundP1
      objectReference: {fileID: 0}
    - target: {fileID: 8275335584552989170, guid: 60bff7ab553d12d4a99ff19c1a0cb1ad,
        type: 3}
      propertyPath: horizontalStringALT
      value: HorizontalP1ALT
      objectReference: {fileID: 0}
    - target: {fileID: 8275335584552989170, guid: 60bff7ab553d12d4a99ff19c1a0cb1ad,
        type: 3}
      propertyPath: jumpStringALT
      value: JumpP1ALT
      objectReference: {fileID: 0}
    - target: {fileID: 8275335584552989170, guid: 60bff7ab553d12d4a99ff19c1a0cb1ad,
        type: 3}
      propertyPath: dashStringRightALT
      value: DashRightP1ALT
      objectReference: {fileID: 0}
    - target: {fileID: 8275335584552989170, guid: 60bff7ab553d12d4a99ff19c1a0cb1ad,
        type: 3}
      propertyPath: dashStringLeftALT
      value: DashLeftP1ALT
      objectReference: {fileID: 0}
    - target: {fileID: 8275335584552989170, guid: 60bff7ab553d12d4a99ff19c1a0cb1ad,
        type: 3}
      propertyPath: gPoundStringALT
      value: GroundPoundP1ALT
      objectReference: {fileID: 0}
    m_RemovedComponents: []
  m_SourcePrefab: {fileID: 100100000, guid: 60bff7ab553d12d4a99ff19c1a0cb1ad, type: 3}
